<?xml version="1.0" standalone="no"?>
<!DOCTYPE svg PUBLIC "-//W3C//DTD SVG 1.1//EN" "http://www.w3.org/Graphics/SVG/1.1/DTD/svg11.dtd" >
<svg xmlns="http://www.w3.org/2000/svg">
<metadata>Generated by IcoMoon</metadata>
<defs>
<font id="icomoon" horiz-adv-x="1024">
<font-face units-per-em="1024" ascent="960" descent="-64" />
<missing-glyph horiz-adv-x="1024" />
<glyph unicode="&#x20;" horiz-adv-x="512" d="" />
<glyph unicode="&#x21;" glyph-name="underline" d="M31.898 896.717c5.444 0.803 11.728 1.261 18.119 1.261 30.211 0 58.030-10.241 80.175-27.441 7.858-31.453 12.539-67.816 12.539-105.272 0-12.86-0.552-25.592-1.633-38.172l0.113-220.418c-0.158-6.188-0.248-13.475-0.248-20.784 0-48.448 3.963-95.97 11.583-142.26 7.236-44.646 26.836-88.714 55.217-125.69 30.986-35.654 71.187-63.62 116.888-80.059 54.409-20.179 115.015-31.501 178.265-31.501 4.618 0 9.221 0.060 13.809 0.18 2.361-0.070 5.946-0.103 9.539-0.103 56.905 0 111.925 8.073 163.977 23.135 42.184 12.264 82.6 32.583 118.195 59.027 28.77 21.766 53.63 48.941 72.912 79.947 13.267 24.773 22.791 52.071 27.83 80.911 7.659 46.787 11.898 98.805 11.898 151.814 0 18.481-0.515 36.841-1.532 55.067q-9.206 248.862-14.582 261.508 0 7.322-0.973 20.48c-0.666 8.909-1.024 14.899-1.024 18.022-0.027 0.531-0.043 1.153-0.043 1.778 0 9.928 3.919 18.94 10.295 25.575 15.447 5.811 33.356 9.853 51.991 11.311 20.917 0.796 40.102 3.907 58.406 9.112-0.649 5.684 0.103 12.917 0.379 20.272-0.638 12.87-2.027 24.569-4.137 36.016l-11.777-0.435c-33.698-4.355-72.677-6.841-112.237-6.841-6.497 0-12.978 0.067-19.443 0.2l-135.687 6.64h-56.013l-1.331-57.344 9.318-1.997 66.56 1.331c0.211 0.002 0.459 0.004 0.709 0.004 20.053 0 38.064-8.74 50.433-22.618 10.138-15.91 16.122-35.213 16.122-55.915 0-0.994-0.014-1.985-0.041-2.973l2.973-39.125q3.994-57.344 9.011-106.342t7.322-81.92q2.304-32.666 2.355-85.35c0.256-6.549 0.401-14.239 0.401-21.963 0-46.329-5.239-91.434-15.157-134.755-8.028-24.904-20.053-50.126-35.228-73.084-11.265-15.722-25.643-29.889-42.114-41.236-19.404-14.773-41.331-26.355-65.043-33.948-38.315-12.291-80.638-19.133-124.558-19.133-1.513 0-3.025 0.008-4.534 0.024-43.089 0.532-83.596 12.085-118.765 31.975-25.575 13.85-47.286 34.74-62.35 60.047-21.331 39.812-33.845 86.111-34.409 135.282l-9.73 187.056-0.666 152.678q0 3.994-0.358 16.998c0 8.653-0.307 15.872-0.307 21.658-0.776 6.917-1.219 14.936-1.219 23.058 0 23.188 3.61 45.533 10.298 66.503 11.018 9.171 26.45 15.755 43.419 15.755 3.118 0 6.184-0.222 9.182-0.652 0.011 0.039 0.431 0.039 0.85 0.039 28.756 0 57.004 2.178 84.587 6.379l-3.093 5.603-1.331 42.701 0.666 9.318q-20.019-1.331-57.344-1.331l-97.28-3.328q-54.784-1.997-112.077-1.997-22.528 0-110.694 4.659-34.714 2.662-74.701 2.662-18.022 0-26.675-0.666l1.997-58.675c8.796-1.42 19.157-2.378 29.687-2.656zM1002.701 21.197h-981.453c-0.234 0.010-0.509 0.015-0.785 0.015-11.311 0-20.48-9.169-20.48-20.48 0-0.293 0.006-0.585 0.018-0.876l-0.001-42.608c-0.010-0.234-0.015-0.508-0.015-0.783 0-11.311 9.169-20.48 20.48-20.48 0.275 0 0.549 0.005 0.822 0.016l981.414-0.001c0.249-0.011 0.541-0.017 0.834-0.017 11.311 0 20.48 9.169 20.48 20.48 0 0.276-0.005 0.551-0.016 0.824l0.001 42.61c0.012 0.265 0.019 0.575 0.019 0.888 0 11.311-9.169 20.48-20.48 20.48-0.295 0-0.588-0.006-0.88-0.019z" />
<glyph unicode="&#x22;" glyph-name="text" d="M797.594-64h175.923l-376.781 1023.59h-163.84l-380.979-1023.59h175.206l82.637 239.053h405.965zM512 755.2h4.25l150.272-437.35h-307.2z" />
<glyph unicode="&#x23;" glyph-name="strik-ethrough" d="M1024 422.4v-62.157h-234.496c26.098-34.176 41.992-77.366 42.495-124.248-2.492-75.672-41.453-141.624-99.761-181.214-60.433-42.502-134.583-67.624-214.602-67.624-1.982 0-3.96 0.015-5.935 0.046-1.374-0.031-3.347-0.046-5.323-0.046-80.023 0-154.179 25.121-215.011 67.907-57.914 39.306-96.874 105.258-99.358 180.443l127.99 0.37c0-67.379 87.91-124.365 192-124.365s192 56.934 192 124.365-87.91 124.365-192 124.365h-512v62.157h299.52c-2.355 1.587-4.659 3.226-6.963 5.12-59.051 40.060-97.995 105.925-100.547 181.022 2.483 75.935 41.443 141.887 99.751 181.477 60.438 42.502 134.594 67.624 214.617 67.624 1.976 0 3.949-0.015 5.919-0.046 1.374 0.031 3.347 0.046 5.324 0.046 80.023 0 154.179-25.121 215.011-67.907 57.914-39.306 96.874-105.258 99.358-180.443l-127.99-0.37c0 67.379-87.91 124.365-192 124.365s-192-56.986-192-124.365 87.91-124.365 192-124.365c1.519 0.022 3.311 0.035 5.107 0.035 77.208 0 148.992-23.219 208.751-63.056l298.142 0.864z" />
<glyph unicode="&#x24;" glyph-name="setting" d="M580.147 960l-136.858-0.614c-8.551-0.155-15.753-5.759-18.29-13.481l-32.091-110.321c-27.611-8.877-51.138-18.92-73.531-30.815l-97.119 56.876c-2.748 1.563-6.037 2.485-9.541 2.485-5.263 0-10.041-2.079-13.557-5.461l-96.762-97.172c-3.504-3.526-5.67-8.385-5.67-13.75 0-3.201 0.771-6.222 2.138-8.888l55.245-100.652c-10.697-20.063-20.549-43.614-28.224-68.129l-111.603-35.039c-7.894-2.555-13.521-9.798-13.619-18.369l-0.666-137.432c0.098-8.583 5.725-15.826 13.481-18.342l112.112-32.039c8.475-27.047 18.548-50.318 30.701-72.278l-58.452-98.372c-1.439-2.657-2.285-5.816-2.285-9.173 0-5.445 2.225-10.37 5.815-13.916l97.282-97.282c3.479-3.265 8.173-5.271 13.336-5.271 3.365 0 6.531 0.852 9.294 2.352l101.836 55.040c20.008-10.731 43.38-20.393 67.767-27.711l33.456-112.116c2.555-7.894 9.798-13.521 18.369-13.619l138.61-0.512c8.727 0.203 16.025 6.091 18.346 14.095l30.754 111.549c27.096 8.388 50.443 18.449 72.45 30.634l99.429-58.487c2.658-1.446 5.821-2.296 9.183-2.296 5.444 0 10.367 2.23 13.906 5.827l96.566 97.283c3.484 3.522 5.636 8.368 5.636 13.716 0 3.215-0.778 6.248-2.155 8.921l-56.73 101.318c11.337 20.218 21.581 43.757 29.446 68.358l112.173 33.479c7.884 2.526 13.518 9.725 13.67 18.261l-0.665 138.667c-0.203 8.727-6.091 16.025-14.095 18.346l-109.757 30.754c-8.807 27.537-18.834 51.033-30.742 73.375l56.24 98.401c1.449 2.66 2.301 5.827 2.301 9.192 0 5.163-2.006 9.857-5.281 13.347l-97.27 97.27c-3.522 3.484-8.368 5.636-13.716 5.636-3.215 0-6.248-0.778-8.921-2.155l-100.652-56.166c-19.869 10.807-43.192 20.849-67.466 28.786l-35.446 112.27c-3.862 6.891-10.415 11.884-18.199 13.586zM522.24 666.675c115.134-0.088 208.435-93.442 208.435-208.589 0-115.2-93.388-208.589-208.589-208.589s-208.589 93.388-208.589 208.589c0 0.054 0 0.108 0 0.162 0 0.037 0 0.091 0 0.146 0 115.031 93.251 208.282 208.282 208.282 0.162 0 0.324 0 0.486-0.001z" />
<glyph unicode="&#x25;" glyph-name="right-text" d="M0 192h1024v-102.4h-1024v102.4zM460.8 601.6h563.2v-102.4h-563.2v102.4zM0 806.4h1024v-102.4h-1024v102.4zM204.8 396.8h819.2v-102.4h-819.2v102.4z" />
<glyph unicode="&#x26;" glyph-name="numbering-list" d="M71.066 380.109l-0.461 1.638 29.235 29.747c13.761 13.524 26.569 27.89 38.39 43.062 7.328 10.15 11.283 21.618 11.283 34.010 0 0.354-0.003 0.708-0.010 1.061 0.035 0.677 0.055 1.532 0.055 2.392 0 17.082-7.753 32.354-19.932 42.487-14.023 10.434-31.567 16.659-50.565 16.659-1.786 0-3.559-0.055-5.318-0.163-0.803 0.064-2.027 0.094-3.257 0.094-19.452 0-37.16-7.465-50.415-19.688-12.032-11.105-19.575-27.022-19.575-44.701 0-1.009 0.025-2.012 0.073-3.009l0.302-0.32h48.947c-0.007 0.27-0.010 0.587-0.010 0.905 0 8.122 2.431 15.676 6.605 21.975 3.651 5.242 9.81 8.727 16.783 8.727 0.296 0 0.59-0.006 0.882-0.019 0.485 0.042 1.1 0.065 1.72 0.065 6.687 0 12.742-2.704 17.132-7.079 3.937-4.639 6.332-10.695 6.332-17.311 0-0.484-0.013-0.965-0.038-1.443-0.454-7.164-2.719-13.783-6.342-19.451-6.055-9.382-12.808-17.682-20.369-25.167l-70.003-68.262v-29.030h149.709v32.819h-81.152zM103.834 689.92v167.68l-101.274-14.182v-33.69h48.64v-119.808h-48.691v-37.12h149.709v37.12h-48.435zM146.125 127.078c-7.015 8.343-16.217 14.635-26.725 18.011 9.377 4.176 17.57 10.379 23.871 18.175 5.763 6.999 9.204 15.907 9.204 25.619 0 0.034 0 0.067 0 0.101 0.032 0.661 0.050 1.443 0.050 2.228 0 16.71-8.27 31.488-20.939 40.466-14.674 9.651-32.475 15.333-51.602 15.333-1.714 0-3.417-0.046-5.108-0.136-0.551 0.036-1.476 0.050-2.404 0.050-18.23 0-35.146-5.624-49.109-15.232-12.142-7.977-20.239-21.86-20.239-37.634 0-0.761 0.019-1.517 0.056-2.268l0.303-1.43h48.64c-0.064 0.508-0.1 1.095-0.1 1.691 0 5.43 3.008 10.158 7.45 12.607 4.828 3.553 10.806 5.666 17.277 5.67 0.608 0.051 1.316 0.081 2.030 0.081 6.521 0 12.472-2.438 16.992-6.452 4.085-3.941 6.638-9.497 6.638-15.65 0-0.214-0.003-0.428-0.009-0.64 0.025-0.385 0.039-0.871 0.039-1.361 0-6.974-2.789-13.297-7.313-17.914-5.127-4.502-11.898-7.252-19.312-7.252-0.518 0-1.032 0.013-1.543 0.040l-23.071-0.003v-33.024h23.245c0.451 0.020 0.98 0.032 1.512 0.032 8.187 0 15.733-2.745 21.768-7.365 5.059-4.826 8.259-11.72 8.259-19.361 0-0.822-0.037-1.636-0.11-2.44 0.011-0.049 0.013-0.229 0.013-0.409 0-6.838-3.026-12.969-7.812-17.128-5.34-4.533-12.275-7.276-19.852-7.276-0.501 0-0.999 0.012-1.494 0.036-7.426 0.218-14.211 3.091-19.418 7.705-4.92 3.608-8.099 9.407-8.099 15.949 0 0.449 0.015 0.895 0.045 1.337l-48.95-0.060-0.307-1.741c-0.080-1.035-0.125-2.241-0.125-3.458 0-16.888 8.744-31.733 21.953-40.255 14.786-9.749 32.696-15.485 51.945-15.485 0.506 0 1.012 0.004 1.516 0.012 1.106-0.052 2.492-0.081 3.886-0.081 20.068 0 38.736 5.991 54.314 16.283 13.393 8.947 22.337 24.405 22.337 41.953 0 0.543-0.009 1.084-0.026 1.622 0.013 0.288 0.019 0.719 0.019 1.151 0 10.582-3.652 20.31-9.764 27.995zM256 164.454h768v-63.027h-768v63.027zM256 479.488h768v-63.027h-768v63.027zM256 794.573h768v-62.976h-768v62.976z" />
<glyph unicode="&#x27;" glyph-name="link" d="M950.989 886.221l-3.789 4.045c-43.803 43.556-104.184 70.48-170.854 70.48s-127.051-26.923-170.865-70.491l-217.947-217.743c-43.559-43.811-70.484-104.201-70.484-170.88s26.925-127.069 70.495-170.891l4.034-4.034c7.543-7.498 15.594-14.51 24.086-20.97l80.259 79.287c-9.898 5.836-18.449 12.463-26.069 20.027l-3.934 4.037c-23.649 23.7-38.274 56.414-38.274 92.544s14.624 68.844 38.276 92.546l217.751 217.751c23.694 23.662 56.41 38.295 92.544 38.295s68.85-14.633 92.545-38.296l4.043-3.992c23.637-23.706 38.252-56.418 38.252-92.544s-14.615-68.838-38.255-92.547l-98.608-98.557c15.514-37.401 24.523-80.839 24.523-126.381 0-2.028-0.018-4.051-0.053-6.070l152.375 152.675c43.529 43.806 70.433 104.175 70.433 170.829 0 66.679-26.925 127.069-70.496 170.892zM629.197 572.467c-7.541 7.504-15.592 14.516-24.089 20.972l-80.308-79.289c9.896-5.841 18.446-12.468 26.070-20.028l4.036-4.036c23.649-23.7 38.274-56.414 38.274-92.544s-14.624-68.844-38.276-92.546l-217.751-217.751c-23.7-23.649-56.414-38.274-92.544-38.274s-68.844 14.624-92.546 38.276l-4.042 4.042c-23.649 23.7-38.274 56.414-38.274 92.544s14.624 68.844 38.276 92.546l98.506 98.506c-15.514 37.401-24.523 80.839-24.523 126.381 0 2.028 0.018 4.051 0.053 6.070l-152.324-152.624c-43.559-43.811-70.484-104.201-70.484-170.88s26.925-127.069 70.495-170.891l3.982-4.034c43.811-43.559 104.201-70.484 170.88-70.484s127.069 26.925 170.891 70.495l217.742 217.742c43.547 43.817 70.463 104.205 70.463 170.88s-26.916 127.064-70.475 170.892z" />
<glyph unicode="&#x28;" glyph-name="left-text" d="M1024 192h-1024v-102.4h1024v102.4zM563.2 601.6h-563.2v-102.4h563.2v102.4zM1024 806.4h-1024v-102.4h1024v102.4zM819.2 396.8h-819.2v-102.4h819.2v102.4z" />
<glyph unicode="&#x29;" glyph-name="justify-all" d="M0 192h1024v-102.4h-1024v102.4zM0 601.6h1024v-102.4h-1024v102.4zM0 806.4h1024v-102.4h-1024v102.4zM0 396.8h1024v-102.4h-1024v102.4z" />
<glyph unicode="&#x30;" glyph-name="italic" d="M795.75 958.413q-22.63-1.69-44.186-3.021-96.205-5.99-139.059-5.99-22.118 0-47.462 1.331l-206.029 9.267-12.339-68.608c6.97-1.202 15.456-2.151 24.066-2.635 0.767-0.027 0.95-0.027 1.134-0.027 33.596 0 65.587-6.872 94.645-19.286l-1.573-24.747-5.12-33.331-14.387-90.010-10.24-41.984-18.995-104.704c-0.721-3.098-1.495-5.665-2.407-8.164q-2.098-6.53-5.682-19.996t-8.141-31.027q-4.557-17.664-10.24-44.698t-11.059-56.32l-7.782-42.701-36.403-178.688-17.562-92.672c-3.745-25.527-13.168-48.323-26.952-67.816-21.165-9.866-46.314-18.797-72.517-25.007l-52.596-13.826-11.264-56.525q15.36 1.331 63.693 5.99 86.426 7.987 113.101 7.322l128.717-1.331q81.92-8.653 94.208-11.366c5.308-1.026 11.562-1.742 17.935-1.989q11.965-0.007 27.53 1.324c3.565 0.454 7.69 0.713 11.876 0.713 1.081 0 2.158-0.017 3.231-0.052q1.174 6.66 5.68 27.345c2.412 11.363 4.047 24.652 4.544 38.231q-19.495 3.753-42.893 7.081c-29.803 3.537-56.056 8.445-81.688 14.913 3.645 2.346 3.227 6.115 3.227 9.982 0 2.506 0.176 4.971 0.516 7.383l7.802 29.726 27.955 156.672 24.678 105.37 39.629 207.36q14.285 71.322 42.906 204.032 2.611 25.344 8.448 54.682c4.236 22.786 9.554 42.49 16.239 61.552 16.898 4.341 38.799 11.365 61.291 16.884 31.963 7.202 55.657 14.243 78.725 22.589q-0.505 13.305 4.052 32.607c1.602 6.923 3.079 15.69 4.092 24.597z" />
<glyph unicode="&#x31;" glyph-name="dropdown" d="M1024 755.2h-1024l512-665.6z" />
<glyph unicode="&#x32;" glyph-name="dot-list" d="M1024 473.6c0.006-0.292 0.010-0.637 0.010-0.982 0-26.638-21.323-48.295-47.832-48.834l-598.783-0.001c-26.552 1.241-47.61 23.070-47.61 49.818s21.057 48.576 47.498 49.813l598.844 0.004c26.559-0.54 47.882-22.198 47.882-48.835 0-0.345-0.004-0.69-0.011-1.034zM115.763 594.227c-64.743-2.384-116.323-55.443-116.323-120.55s51.581-118.167 116.107-120.544c64.96 2.377 116.54 55.437 116.54 120.544s-51.581 118.167-116.107 120.544zM975.923 889.242h-598.528c-26.559-0.54-47.882-22.198-47.882-48.835 0-0.345 0.004-0.69 0.011-1.034-0.007-0.241-0.011-0.586-0.011-0.931 0-26.638 21.323-48.295 47.832-48.834l598.783-0.001c26.559 0.54 47.883 22.197 47.883 48.835 0 0.363-0.004 0.726-0.012 1.087 0.009 0.268 0.013 0.648 0.013 1.029 0 26.618-21.336 48.252-47.839 48.734zM115.763 960c-64.236-1.365-115.786-53.76-115.786-118.196 0-0.819 0.008-1.636 0.025-2.451-0.017-0.587-0.026-1.422-0.026-2.259 0-64.436 51.551-116.831 115.66-118.194 64.363 1.362 115.914 53.758 115.914 118.194 0 0.837-0.009 1.672-0.026 2.504 0.017 0.569 0.025 1.386 0.025 2.205 0 64.435-51.55 116.831-115.659 118.194zM975.923 157.542h-598.528c-26.552-1.241-47.61-23.070-47.61-49.818s21.057-48.576 47.498-49.813l598.844-0.004c26.552 1.241 47.61 23.070 47.61 49.818s-21.057 48.576-47.498 49.813zM115.763 228.25c-64.743-2.384-116.323-55.443-116.323-120.55s51.581-118.167 116.107-120.544c65.308 1.95 117.33 55.185 117.33 120.57s-52.022 118.619-116.933 120.572z" />
<glyph unicode="&#x33;" glyph-name="cross" d="M1024.512 901.325l-59.443 59.443-453.069-453.325-453.12 453.325-59.392-59.443 453.069-453.325-453.069-453.325 59.392-59.443 453.12 453.325 453.069-453.325 59.392 59.443-453.069 453.325z" />
<glyph unicode="&#x34;" glyph-name="center-text" d="M0 192h1024v-102.4h-1024v102.4zM204.8 601.6h614.4v-102.4h-614.4v102.4zM0 806.4h1024v-102.4h-1024v102.4zM153.6 396.8h716.8v-102.4h-716.8v102.4z" />
<glyph unicode="&#x35;" glyph-name="bold" d="M528.026-64.666c6.72-0.418 14.574-0.657 22.483-0.657 86.3 0 165.969 28.389 230.178 76.337 55.321 48.569 90.704 120.601 90.704 200.897 0 6.199-0.211 12.349-0.626 18.442 0.076 0.695 0.094 2.486 0.094 4.281 0 56.821-17.841 109.476-48.228 152.666-31.567 43.77-79.070 75.572-134.054 86.874 42.769 16.736 79.367 45.002 105.638 81.242 24.71 34.537 39.237 76.807 39.237 122.469 0 0.973-0.007 1.944-0.020 2.914 0.362 4.842 0.567 10.662 0.567 16.53 0 77.853-36.156 147.262-92.592 192.351-65.76 44.645-146.269 71.049-232.944 71.049-8.68 0-17.299-0.265-25.848-0.787l-327.992 0.057v-1024.666h373.402zM546.406 401.254c3.849 0.348 8.324 0.546 12.847 0.546 42.393 0 80.719-17.412 108.216-45.474 24.429-31.379 39.151-71.318 39.151-114.695 0-4.132-0.134-8.232-0.397-12.297 0.237-2.376 0.356-5.795 0.356-9.242 0-42.219-17.811-80.279-46.33-107.073-32.65-25.524-74.184-40.884-119.305-40.884-4.473 0-8.912 0.151-13.31 0.448l-207.737-0.032v328.704h226.509zM319.898 822.835h163.84c4.477 0.327 9.699 0.513 14.965 0.513 45.678 0 88.085-14.009 123.158-37.964 28.3-24.411 46.593-61.142 46.593-102.147 0-3.63-0.143-7.227-0.425-10.785 0.171-1.811 0.251-4.478 0.251-7.163 0-39.379-17.258-74.727-44.623-98.894-30.564-23.773-69.304-38.039-111.375-38.039-3.575 0-7.126 0.103-10.65 0.306l-181.733-0.022v294.195z" />
<glyph unicode="&#x36;" glyph-name="attach" d="M1017.702 579.174c-3.829 3.606-9.003 5.823-14.694 5.823s-10.865-2.216-14.705-5.833l-567.49-541.43c-40.45-38.334-95.223-61.907-155.502-61.907-0.609 0-1.218 0.002-1.826 0.007-0.437-0.005-1.063-0.008-1.69-0.008-60.279 0-115.053 23.573-155.605 62.004-39.855 37.569-64.734 90.852-64.734 149.945s24.879 112.377 64.734 149.946l567.603 541.587c27.865 25.352 65.064 40.875 105.889 40.875 44.947 0 85.498-18.816 114.208-49.001 31.521-26.11 51.413-65.169 51.413-108.874 0-39.646-16.368-75.469-42.715-101.080l-533.384-508.653c-14.123-13.214-33.16-21.329-54.093-21.329s-39.97 8.115-54.137 21.37c-13.742 12.894-22.331 31.228-22.331 51.568s8.589 38.675 22.337 51.574l361.152 344.611c3.753 3.513 6.092 8.498 6.092 14.029s-2.339 10.515-6.081 14.019c-3.84 3.616-9.014 5.833-14.705 5.833s-10.865-2.216-14.705-5.833l-361.103-344.566c-21.279-19.969-34.535-48.27-34.535-79.667s13.256-59.699 34.476-79.613c21.85-20.459 51.231-32.991 83.54-32.991s61.69 12.532 83.549 32.999l533.18 508.609c34.107 32.558 55.313 78.378 55.313 129.15 0 54.828-24.729 103.881-63.642 136.612-36.629 37.809-87.52 61.144-143.862 61.144-52.216 0-99.751-20.043-135.332-52.854l-567.517-541.161c-47.479-44.694-77.046-107.957-77.046-178.125s29.567-133.431 76.921-178.009c48.188-45.831 113.355-73.953 185.091-73.953 0.637 0 1.274 0.002 1.91 0.007 0.499-0.005 1.206-0.008 1.913-0.008 71.586 0 136.632 27.999 184.784 73.644l567.329 541.48c3.753 3.513 6.092 8.498 6.092 14.029s-2.339 10.515-6.081 14.019z" />
<glyph unicode="&#x37;" glyph-name="personalization" d="M682.906 359.219l-2.509 1.178c-6.042 2.867-12.083 5.53-18.278 8.038s-13.568 5.376-20.48 7.834c-5.478 1.894-11.008 3.635-16.589 5.12-8.499 2.56-17.101 4.864-25.907 6.912-3.021 0.666-6.042 1.28-9.114 1.843l-2.099 0.41c-5.12 1.075-10.24 1.997-15.77 2.816h-3.072c-4.403 0.666-8.755 1.331-13.363 1.843l-15.36 1.331c-8.618 0.655-18.665 1.029-28.8 1.029s-20.182-0.374-30.129-1.108l-4.508 0.335h-2.56l-6.4-1.024c-5.888-0.666-11.776-1.485-17.613-2.458h-1.741c-3.994-0.666-7.987-1.434-11.93-2.202s-8.704-1.69-13.005-2.662c-8.346-1.946-16.64-4.198-24.73-6.605-6.4-1.894-12.698-3.994-18.688-6.144l-4.096-1.536c-12.595-4.659-25.139-9.933-37.274-15.77l-3.226-1.587c-139.581-72.582-233.274-216.1-233.274-381.501 0-0.825 0.002-1.649 0.007-2.472-0.001-3.611-0.001-7.297 0.46-10.983l1.075-25.856h816.128l1.075 25.6c0 3.789 0.461 7.526 0.461 11.418 0.005 0.746 0.007 1.628 0.007 2.511 0 167.387-96.152 312.317-236.236 382.571zM142.438-22.477c0.849 148.877 85.817 277.711 209.749 341.464l6.212 2.447 0.461 0.461c9.933 4.71 20.224 9.011 30.72 12.8l3.277 1.229c5.683 2.048 11.315 3.891 17.152 5.632 7.27 2.253 14.95 4.045 22.17 5.99 3.84 0.87 7.731 1.638 11.725 2.406 3.174 0.614 6.298 1.229 9.472 1.741l1.536 0.307c5.734 0.922 11.469 1.792 17.203 2.406l13.107 1.434c7.987 0.672 17.287 1.056 26.675 1.056s18.688-0.383 27.883-1.135l11.49-1.047c3.123-0.358 6.298-0.819 10.24-1.382l4.608-0.666c4.762-0.717 9.574-1.587 14.387-2.509l2.253-0.461 7.936-1.638c7.885-1.792 15.616-3.891 23.296-6.195 5.12-1.536 10.24-3.123 15.053-4.813q9.37-3.226 18.483-7.014t17.357-7.68l0.717-0.666c128.235-63.933 214.972-193.791 215.859-343.996l-739.020-0.119zM413.133 450.611c3.021-1.331 6.093-2.458 9.216-3.584l6.502-2.458c2.509-0.973 5.12-1.946 7.578-2.816 22.109-7.451 47.578-11.839 74.045-12.031l2.090-0.001c9.036 0.015 17.937 0.517 26.698 1.48 1.769 0.209 4.585 0.67 7.401 1.182l6.246 0.973c3.533 0.461 7.066 1.024 10.752 1.741 2.509 0.563 5.12 1.229 7.424 1.894l6.861 1.792c3.379 0.87 6.758 1.69 10.24 2.765 2.099 0.666 4.096 1.485 6.144 2.253l5.478 2.048c3.942 1.434 7.885 2.867 11.827 4.608 1.536 0.666 3.021 1.434 4.506 2.202l1.843 0.973c5.427 2.509 10.803 5.12 16.179 8.090l3.482 2.15c5.99 3.533 11.981 7.168 18.022 11.469 3.123 2.202 6.144 4.659 9.114 7.117l10.24 8.243c56.935 49.15 92.803 121.361 92.979 201.953v2.232c0.025 1.341 0.039 2.922 0.039 4.506 0 142.136-113.765 257.7-255.205 260.603-137.629-2.71-248.686-111.625-254.817-247.858l-0.020-3.99c-0.512-4.147-0.768-8.755-0.768-13.261-0.009-0.82-0.014-1.789-0.014-2.76 0-106.83 63.211-198.896 154.272-240.836zM297.677 705.28v3.738c5.188 115.424 98.964 207.308 214.679 209.456 119.683-2.262 215.668-99.649 215.668-219.454 0-0.787-0.004-1.573-0.012-2.359l0.001-2.082c0-0.134 0-0.293 0-0.452 0-68.476-30.317-129.872-78.262-171.496l-9.752-7.713c-2.099-1.792-4.25-3.584-6.912-5.478-4.813-3.379-9.882-6.451-15.053-9.472l-2.867-1.792c-4.301-2.406-8.858-4.557-13.568-6.707l-5.12-2.662c-3.021-1.331-6.246-2.458-9.421-3.584l-6.605-2.458c-1.28-0.512-2.56-1.024-3.84-1.434-2.458-0.768-5.12-1.382-7.475-2.048l-7.987-2.099c-1.741-0.461-3.43-0.973-5.12-1.331-2.662-0.563-5.376-0.922-8.090-1.331l-7.578-1.178c-1.843-0.307-3.686-0.666-5.734-0.87-6.656-0.717-13.363-1.126-20.173-1.178h-2.15c-22.891 0.035-44.896 3.78-65.461 10.664-0.331 0.139-2.072 0.907-3.659 1.573l-7.629 2.662c-2.355 0.87-4.659 1.69-6.912 2.765-78.297 35.927-131.696 113.644-131.696 203.834 0 0.736 0.004 1.471 0.011 2.205-0.001 3.369 0.46 6.851 0.716 10.281z" />
<glyph unicode="&#x38;" glyph-name="delete" d="M819.2-64h-614.4v665.6h614.4v-665.6zM921.6 704h-819.2v153.6h307.2v102.4h204.8v-102.4h307.2v-153.6z" />
</font></defs></svg>